{
	"name": "BootInfo",
	"version": "2.1.0",
	"keywords": "ESP32, ESP01, ESP12E, ESP8266, boot, information, wifi, partitions, CPU",
	"authors": {
		"name": "X99",
		"email": "deadbird99@gmail.com",
		"url": "https://gitlab.com/X99"
	},
	"repository": {
		"type": "git",
		"url": "https://gitlab.com/X99/bootinfo.git"
	},
	"frameworks": "Arduino",
	"platforms": [
		"espressif8266",
		"espressif32"
	],
	"description": "Displays on serial information about your ESP: cores, CPU frequency, reboot reason, WiFi informations..."
}
